<svg width="35" height="19" viewBox="0 0 35 19" fill="none" xmlns="http://www.w3.org/2000/svg">
<path d="M31.8171 9.4998V6.33279H28.6354V3.16578H25.4534V0H22.2713V3.1666H12.7263V0H9.545V3.1666H6.36334V6.3336H3.18126V9.4998H0V18.9996H3.18166V12.6668H6.36374V19H9.54583V15.833H25.4542V19H28.6362V12.6668H31.8183V19H35V9.4998H31.8171ZM25.4538 6.33279V9.4998H22.2717V6.33279H25.4538ZM9.54542 6.33279H12.7275V9.4998H9.545L9.54542 6.33279Z" fill="white"/>
</svg>
